127.0.0.1 - - [23/Nov/2023:15:11:51 +0530] "GET / HTTP/1.1" 404 751
0:0:0:0:0:0:0:1 - - [23/Nov/2023:15:11:52 +0530] "GET /EmpWebApp/Login.html HTTP/1.1" 200 564
0:0:0:0:0:0:0:1 - - [23/Nov/2023:15:12:28 +0530] "POST /EmpWebApp/LoginServlet HTTP/1.1" 200 664
0:0:0:0:0:0:0:1 - - [23/Nov/2023:15:12:37 +0530] "POST /EmpWebApp/LoginServlet HTTP/1.1" 200 328
0:0:0:0:0:0:0:1 - - [23/Nov/2023:15:12:41 +0530] "GET /EmpWebApp/GetAllEmployees HTTP/1.1" 200 1174
0:0:0:0:0:0:0:1 - - [23/Nov/2023:15:12:44 +0530] "GET /EmpWebApp/GetEmployeeById.html HTTP/1.1" 200 411
0:0:0:0:0:0:0:1 - - [23/Nov/2023:15:12:48 +0530] "POST /EmpWebApp/GetEmployeeById HTTP/1.1" 200 562
0:0:0:0:0:0:0:1 - - [23/Nov/2023:15:12:50 +0530] "GET /EmpWebApp/HRHomePage HTTP/1.1" 200 328
0:0:0:0:0:0:0:1 - - [23/Nov/2023:15:12:52 +0530] "GET /EmpWebApp/Logout HTTP/1.1" 200 564
127.0.0.1 - - [23/Nov/2023:16:08:42 +0530] "GET / HTTP/1.1" 404 751
0:0:0:0:0:0:0:1 - - [23/Nov/2023:16:08:43 +0530] "GET /EmpWebApp/Login.html HTTP/1.1" 200 564
0:0:0:0:0:0:0:1 - - [23/Nov/2023:16:08:57 +0530] "POST /EmpWebApp/LoginServlet HTTP/1.1" 404 771
127.0.0.1 - - [23/Nov/2023:16:11:31 +0530] "GET / HTTP/1.1" 404 751
0:0:0:0:0:0:0:1 - - [23/Nov/2023:16:11:43 +0530] "POST /EmpWebApp/LoginServlet HTTP/1.1" 200 658
0:0:0:0:0:0:0:1 - - [23/Nov/2023:16:11:53 +0530] "GET /EmpWebApp/GetAllEmployees HTTP/1.1" 200 1504
0:0:0:0:0:0:0:1 - - [23/Nov/2023:16:11:53 +0530] "GET /EmpWebApp/GetAllEmployees HTTP/1.1" 200 1504
0:0:0:0:0:0:0:1 - - [23/Nov/2023:16:11:56 +0530] "GET /EmpWebApp/GetEmployeeById.html HTTP/1.1" 200 411
0:0:0:0:0:0:0:1 - - [23/Nov/2023:16:12:23 +0530] "POST /EmpWebApp/GetEmployeeById HTTP/1.1" 200 892
127.0.0.1 - - [23/Nov/2023:16:51:51 +0530] "GET / HTTP/1.1" 404 751
0:0:0:0:0:0:0:1 - - [23/Nov/2023:16:51:52 +0530] "GET /EmpWebApp/Login.html HTTP/1.1" 304 -
0:0:0:0:0:0:0:1 - - [23/Nov/2023:16:52:01 +0530] "POST /EmpWebApp/LoginServlet HTTP/1.1" 200 658
0:0:0:0:0:0:0:1 - - [23/Nov/2023:16:52:04 +0530] "GET /EmpWebApp/GetAllEmployees HTTP/1.1" 200 1504
0:0:0:0:0:0:0:1 - - [23/Nov/2023:16:52:06 +0530] "GET /EmpWebApp/HRHomePage.jsp HTTP/1.1" 200 658
0:0:0:0:0:0:0:1 - - [23/Nov/2023:16:52:08 +0530] "GET /EmpWebApp/Logout HTTP/1.1" 200 564
0:0:0:0:0:0:0:1 - - [23/Nov/2023:16:52:14 +0530] "GET /EmpWebApp/GetEmployeeById.html HTTP/1.1" 304 -
0:0:0:0:0:0:0:1 - - [23/Nov/2023:16:52:18 +0530] "POST /EmpWebApp/GetEmployeeById HTTP/1.1" 200 894
