127.0.0.1 - - [27/Nov/2023:15:16:11 +0530] "GET / HTTP/1.1" 404 751
0:0:0:0:0:0:0:1 - - [27/Nov/2023:15:16:12 +0530] "GET /EmpWebApp/Login.html HTTP/1.1" 304 -
0:0:0:0:0:0:0:1 - - [27/Nov/2023:15:16:18 +0530] "POST /EmpWebApp/LoginServlet HTTP/1.1" 200 658
0:0:0:0:0:0:0:1 - - [27/Nov/2023:15:16:23 +0530] "GET /EmpWebApp/GetAllEmployees HTTP/1.1" 200 2237
0:0:0:0:0:0:0:1 - - [27/Nov/2023:15:16:28 +0530] "GET /EmpWebApp/HRHomePage.jsp HTTP/1.1" 200 658
0:0:0:0:0:0:0:1 - - [27/Nov/2023:15:16:30 +0530] "GET /EmpWebApp/Logout HTTP/1.1" 304 -
0:0:0:0:0:0:0:1 - - [27/Nov/2023:15:24:37 +0530] "POST /EmpWebApp/LoginServlet HTTP/1.1" 200 657
0:0:0:0:0:0:0:1 - - [27/Nov/2023:15:24:40 +0530] "GET /EmpWebApp/GetEmployeeById.jsp HTTP/1.1" 200 1204
0:0:0:0:0:0:0:1 - - [27/Nov/2023:15:24:44 +0530] "POST /EmpWebApp/GetEmployeeById HTTP/1.1" 200 891
127.0.0.1 - - [27/Nov/2023:16:12:12 +0530] "GET / HTTP/1.1" 404 751
0:0:0:0:0:0:0:1 - - [27/Nov/2023:16:12:25 +0530] "POST /EmpWebApp/LoginServlet HTTP/1.1" 200 657
0:0:0:0:0:0:0:1 - - [27/Nov/2023:16:12:29 +0530] "GET /EmpWebApp/GetAllEmployees HTTP/1.1" 200 2236
0:0:0:0:0:0:0:1 - - [27/Nov/2023:16:12:29 +0530] "GET /EmpWebApp/GetAllEmployees HTTP/1.1" 200 2236
0:0:0:0:0:0:0:1 - - [27/Nov/2023:16:12:31 +0530] "GET /EmpWebApp/GetEmployeeById.jsp HTTP/1.1" 500 2430
0:0:0:0:0:0:0:1 - - [27/Nov/2023:16:17:08 +0530] "POST /EmpWebApp/LoginServlet HTTP/1.1" 200 657
0:0:0:0:0:0:0:1 - - [27/Nov/2023:16:17:16 +0530] "GET /EmpWebApp/GetAllEmployees HTTP/1.1" 200 2236
0:0:0:0:0:0:0:1 - - [27/Nov/2023:16:17:18 +0530] "GET /EmpWebApp/GetEmployeeById.jsp HTTP/1.1" 200 1229
0:0:0:0:0:0:0:1 - - [27/Nov/2023:16:17:22 +0530] "POST /EmpWebApp/GetEmployeeById HTTP/1.1" 200 1270
0:0:0:0:0:0:0:1 - - [27/Nov/2023:16:18:27 +0530] "GET /EmpWebApp/GetAllEmployees HTTP/1.1" 200 2236
0:0:0:0:0:0:0:1 - - [27/Nov/2023:16:18:29 +0530] "GET /EmpWebApp/GetEmployeeById.jsp HTTP/1.1" 200 1229
0:0:0:0:0:0:0:1 - - [27/Nov/2023:16:18:31 +0530] "GET /EmpWebApp/HRHomePage.jsp HTTP/1.1" 200 657
0:0:0:0:0:0:0:1 - - [27/Nov/2023:16:53:56 +0530] "POST /EmpWebApp/LoginServlet HTTP/1.1" 200 657
0:0:0:0:0:0:0:1 - - [27/Nov/2023:16:53:57 +0530] "GET /EmpWebApp/GetAllEmployees HTTP/1.1" 200 2236
0:0:0:0:0:0:0:1 - - [27/Nov/2023:16:53:59 +0530] "GET /EmpWebApp/GetEmployeeById.jsp HTTP/1.1" 200 1229
0:0:0:0:0:0:0:1 - - [27/Nov/2023:16:54:02 +0530] "POST /EmpWebApp/GetEmployeeById HTTP/1.1" 200 1270
0:0:0:0:0:0:0:1 - - [27/Nov/2023:16:54:05 +0530] "GET /EmpWebApp/HRHomePage.jsp HTTP/1.1" 200 657
0:0:0:0:0:0:0:1 - - [27/Nov/2023:16:54:24 +0530] "POST /EmpWebApp/LoginServlet HTTP/1.1" 200 593
0:0:0:0:0:0:0:1 - - [27/Nov/2023:16:54:26 +0530] "GET /EmpWebApp/EmployeeProfile.jsp HTTP/1.1" 200 1264
0:0:0:0:0:0:0:1 - - [27/Nov/2023:16:54:36 +0530] "GET /EmpWebApp/EmpHomePage.jsp HTTP/1.1" 200 593
0:0:0:0:0:0:0:1 - - [27/Nov/2023:16:56:13 +0530] "GET /EmpWebApp/EmployeeProfile.jsp HTTP/1.1" 500 2012
127.0.0.1 - - [27/Nov/2023:16:57:09 +0530] "GET / HTTP/1.1" 404 751
0:0:0:0:0:0:0:1 - - [27/Nov/2023:16:57:27 +0530] "POST /EmpWebApp/LoginServlet HTTP/1.1" 200 593
0:0:0:0:0:0:0:1 - - [27/Nov/2023:16:57:29 +0530] "GET /EmpWebApp/EmployeeProfile.jsp HTTP/1.1" 200 1264
0:0:0:0:0:0:0:1 - - [27/Nov/2023:16:57:34 +0530] "GET /EmpWebApp/EmpHomePage.jsp HTTP/1.1" 200 593
0:0:0:0:0:0:0:1 - - [27/Nov/2023:16:57:51 +0530] "POST /EmpWebApp/LoginServlet HTTP/1.1" 200 657
0:0:0:0:0:0:0:1 - - [27/Nov/2023:16:57:53 +0530] "GET /EmpWebApp/GetAllEmployees HTTP/1.1" 200 2236
0:0:0:0:0:0:0:1 - - [27/Nov/2023:16:57:54 +0530] "GET /EmpWebApp/GetEmployeeById.jsp HTTP/1.1" 200 1229
0:0:0:0:0:0:0:1 - - [27/Nov/2023:16:57:58 +0530] "POST /EmpWebApp/GetEmployeeById HTTP/1.1" 200 1270
0:0:0:0:0:0:0:1 - - [27/Nov/2023:16:58:02 +0530] "GET /EmpWebApp/HRHomePage.jsp HTTP/1.1" 200 657
127.0.0.1 - - [27/Nov/2023:17:17:56 +0530] "GET / HTTP/1.1" 404 751
0:0:0:0:0:0:0:1 - - [27/Nov/2023:17:17:56 +0530] "GET /EmpWebApp/Login.html HTTP/1.1" 200 564
0:0:0:0:0:0:0:1 - - [27/Nov/2023:17:18:06 +0530] "POST /EmpWebApp/LoginServlet HTTP/1.1" 200 657
0:0:0:0:0:0:0:1 - - [27/Nov/2023:17:18:09 +0530] "GET /EmpWebApp/GetAllEmployees HTTP/1.1" 200 2236
0:0:0:0:0:0:0:1 - - [27/Nov/2023:17:18:09 +0530] "GET /EmpWebApp/GetAllEmployees HTTP/1.1" 200 2236
0:0:0:0:0:0:0:1 - - [27/Nov/2023:17:18:10 +0530] "GET /EmpWebApp/GetEmployeeById.jsp HTTP/1.1" 200 1229
0:0:0:0:0:0:0:1 - - [27/Nov/2023:17:18:15 +0530] "POST /EmpWebApp/GetEmployeeById HTTP/1.1" 200 1273
0:0:0:0:0:0:0:1 - - [27/Nov/2023:17:18:17 +0530] "GET /EmpWebApp/HRHomePage.jsp HTTP/1.1" 200 657
0:0:0:0:0:0:0:1 - - [27/Nov/2023:17:18:19 +0530] "GET /EmpWebApp/Logout HTTP/1.1" 200 564
0:0:0:0:0:0:0:1 - - [27/Nov/2023:17:18:39 +0530] "POST /EmpWebApp/LoginServlet HTTP/1.1" 200 592
0:0:0:0:0:0:0:1 - - [27/Nov/2023:17:18:42 +0530] "GET /EmpWebApp/EmployeeProfile.jsp HTTP/1.1" 200 1258
0:0:0:0:0:0:0:1 - - [27/Nov/2023:17:55:53 +0530] "POST /EmpWebApp/LoginServlet HTTP/1.1" 200 657
0:0:0:0:0:0:0:1 - - [27/Nov/2023:17:55:56 +0530] "GET /EmpWebApp/GetAllEmployees HTTP/1.1" 200 2369
0:0:0:0:0:0:0:1 - - [27/Nov/2023:17:55:57 +0530] "GET /EmpWebApp/GetEmployeeById.jsp HTTP/1.1" 200 1229
0:0:0:0:0:0:0:1 - - [27/Nov/2023:17:56:01 +0530] "POST /EmpWebApp/GetEmployeeById HTTP/1.1" 200 1279
0:0:0:0:0:0:0:1 - - [27/Nov/2023:17:56:04 +0530] "GET /EmpWebApp/HRHomePage.jsp HTTP/1.1" 200 657
0:0:0:0:0:0:0:1 - - [27/Nov/2023:17:56:16 +0530] "POST /EmpWebApp/LoginServlet HTTP/1.1" 200 592
0:0:0:0:0:0:0:1 - - [27/Nov/2023:17:56:19 +0530] "GET /EmpWebApp/EmployeeProfile.jsp HTTP/1.1" 200 1271
0:0:0:0:0:0:0:1 - - [27/Nov/2023:17:56:22 +0530] "GET /EmpWebApp/EmpHomePage.jsp HTTP/1.1" 200 592
