INDEX VERSION 1.130+C:\Talentsprint\fsd\fsd53\SpringBoot\EmpDeptworkspace\.metadata\.plugins\org.eclipse.jdt.core
511646955.index
3729257151.index
3300596117.index
2593705439.index
3639685482.index
114842010.index
3823727133.index
1961815414.index
895354549.index
198133219.index
3040837599.index
3283956519.index
3645924092.index
1609818966.index
4183871491.index
1991064192.index
2361117104.index
2908303689.index
3834544602.index
3098243908.index
2902840291.index
2793624117.index
4038421125.index
3242034012.index
4135958314.index
2613528357.index
4203003851.index
3470739580.index
2066830214.index
410572418.index
2734362536.index
2096793336.index
3613404858.index
2306302953.index
3384257139.index
3954963071.index
918197086.index
1956904976.index
4269588417.index
1451470753.index
3175309738.index
299229075.index
3721850259.index
2760557627.index
1946725198.index
226831990.index
513504003.index
2733622157.index
3012229473.index
1647306921.index
127075646.index
2623965925.index
578789385.index
3100202246.index
2528083585.index
1204552772.index
2885606711.index
103378668.index
75335440.index
3953154592.index
2507423472.index
1341885360.index
451226928.index
563867080.index
674573568.index
1476698149.index
3472294890.index
1296033504.index
411227453.index
2287252768.index
2413328645.index
4188048426.index
1460672587.index
2455384232.index
2205283528.index
2143465359.index
4250856110.index
4138326577.index
2561767932.index
930943223.index
1860972208.index
2975388105.index
637468804.index
2359523801.index
2130565040.index
3396503471.index
4259073463.index
505255175.index
3348520720.index
4120974317.index
1786213409.index
542153213.index
2384261051.index
2210773320.index
3644761064.index
2935194562.index
35212824.index
303816160.index
3211443750.index
156836418.index
2087021294.index
951157909.index
